{
  "params": {
      "local_server": "True",
      "local_uri": "mysql://root:12345@localhost/flask_db",
      "prod_uri": "mysql://root:12345@localhost/flask_db",
      "facebook_url": "https://www.facebook.com/",
      "twitter_url": "https://www.twitter.com/",
      "github_url": "https://www.github.com/",
      "blog_title": "TheCodingThunder",
      "blog_name": "Flask Web Development",
      "tag_line": "Haven From Programmers",
      "no_of_posts": 2,
      "upload_location": "F:\\python flask Web\\web-development-using-flask-and-python\\static\\fileUpload",
      "login_image": "padlock.svg",
      "username": "Rocky",
      "password": "123"
  }
}